module github.com/f97/ezbookkeeping

go 1.21

require (
	github.com/boombuler/barcode v1.0.1
	github.com/gin-contrib/cache v1.3.0
	github.com/gin-contrib/gzip v1.0.1
	github.com/gin-gonic/gin v1.10.0
	github.com/go-playground/validator/v10 v10.20.0
	github.com/go-sql-driver/mysql v1.8.1
	github.com/golang-jwt/jwt/v5 v5.2.1
	github.com/lib/pq v1.10.9
	github.com/mattn/go-sqlite3 v1.14.22
	github.com/pquerna/otp v1.4.0
	github.com/sirupsen/logrus v1.9.3
	github.com/stretchr/testify v1.9.0
	github.com/urfave/cli/v2 v2.27.2
	github.com/wk8/go-ordered-map/v2 v2.1.8
	golang.org/x/crypto v0.23.0
	gopkg.in/ini.v1 v1.67.0
	gopkg.in/mail.v2 v2.3.1
	xorm.io/xorm v1.3.9
)

require (
	filippo.io/edwards25519 v1.1.0 // indirect
	github.com/bahlo/generic-list-go v0.2.0 // indirect
	github.com/bradfitz/gomemcache v0.0.0-20230905024940-24af94b03874 // indirect
	github.com/buger/jsonparser v1.1.1 // indirect
	github.com/bytedance/sonic v1.11.6 // indirect
	github.com/bytedance/sonic/loader v0.1.1 // indirect
	github.com/cloudwego/base64x v0.1.4 // indirect
	github.com/cloudwego/iasm v0.2.0 // indirect
	github.com/cpuguy83/go-md2man/v2 v2.0.4 // indirect
	github.com/davecgh/go-spew v1.1.1 // indirect
	github.com/gabriel-vasile/mimetype v1.4.3 // indirect
	github.com/gin-contrib/sse v0.1.0 // indirect
	github.com/go-playground/locales v0.14.1 // indirect
	github.com/go-playground/universal-translator v0.18.1 // indirect
	github.com/goccy/go-json v0.10.2 // indirect
	github.com/golang/snappy v0.0.4 // indirect
	github.com/gomodule/redigo v1.9.2 // indirect
	github.com/json-iterator/go v1.1.12 // indirect
	github.com/klauspost/cpuid/v2 v2.2.7 // indirect
	github.com/leodido/go-urn v1.4.0 // indirect
	github.com/mailru/easyjson v0.7.7 // indirect
	github.com/mattn/go-isatty v0.0.20 // indirect
	github.com/memcachier/mc/v3 v3.0.3 // indirect
	github.com/modern-go/concurrent v0.0.0-20180306012644-bacd9c7ef1dd // indirect
	github.com/modern-go/reflect2 v1.0.2 // indirect
	github.com/pelletier/go-toml/v2 v2.2.2 // indirect
	github.com/pmezard/go-difflib v1.0.0 // indirect
	github.com/robfig/go-cache v0.0.0-20130306151617-9fc39e0dbf62 // indirect
	github.com/russross/blackfriday/v2 v2.1.0 // indirect
	github.com/syndtr/goleveldb v1.0.0 // indirect
	github.com/twitchyliquid64/golang-asm v0.15.1 // indirect
	github.com/ugorji/go/codec v1.2.12 // indirect
	github.com/xrash/smetrics v0.0.0-20240312152122-5f08fbb34913 // indirect
	golang.org/x/arch v0.8.0 // indirect
	golang.org/x/net v0.25.0 // indirect
	golang.org/x/sys v0.20.0 // indirect
	golang.org/x/text v0.15.0 // indirect
	google.golang.org/protobuf v1.34.1 // indirect
	gopkg.in/alexcesaro/quotedprintable.v3 v3.0.0-20150716171945-2caba252f4dc // indirect
	gopkg.in/yaml.v3 v3.0.1 // indirect
	xorm.io/builder v0.3.13 // indirect
)
